bin/test.vcd
$date
  Tue Aug 18 21:28:17 2020
$end
$version
  GHDL v0
$end
$timescale
  1 fs
$end
$scope module standard $end
$upscope $end
$scope module std_logic_1164 $end
$upscope $end
$scope module numeric_std $end
$upscope $end
$scope module test $end
$var reg 1 ! clk $end
$var reg 1 " oclk $end
$var reg 32 # startpc[31:0] $end
$var reg 32 $ insaddr[31:0] $end
$var reg 32 % insdata[31:0] $end
$var reg 32 & insdatain[31:0] $end
$var reg 1 ' inswrite $end
$var reg 5 ( rf_read_reg_1[4:0] $end
$var reg 5 ) rf_read_reg_2[4:0] $end
$var reg 5 * rf_write_reg[4:0] $end
$var reg 5 + rf_write_reg_micomp[4:0] $end
$var reg 32 , rf_write_data[31:0] $end
$var reg 32 - rf_write_data_micomp[31:0] $end
$var reg 1 . rf_write_enable $end
$var reg 1 / rf_write_enable_micomp $end
$var reg 32 0 rf_read_data_1[31:0] $end
$var reg 32 1 rf_read_data_2[31:0] $end
$var reg 32 2 dm_address[31:0] $end
$var reg 32 3 dm_datain[31:0] $end
$var reg 1 4 dm_write_enable $end
$var reg 32 5 dm_dataout[31:0] $end
$var integer 32 6 writingreg $end
$var reg 5 7 firstreg[4:0] $end
$var reg 5 8 secondreg[4:0] $end
$var reg 32 9 firstdata[31:0] $end
$var reg 32 : seconddata[31:0] $end
$scope module clock_0 $end
$var reg 1 ; clk $end
$upscope $end
$scope module cpu $end
$var reg 1 < clk $end
$var reg 32 = startpc[31:0] $end
$var reg 32 > insaddr[31:0] $end
$var reg 32 ? insdata[31:0] $end
$var reg 5 @ rf_read_reg_1[4:0] $end
$var reg 5 A rf_read_reg_2[4:0] $end
$var reg 5 B rf_write_reg[4:0] $end
$var reg 32 C rf_write_data[31:0] $end
$var reg 1 D rf_write_enable $end
$var reg 32 E rf_read_data_1[31:0] $end
$var reg 32 F rf_read_data_2[31:0] $end
$var reg 32 G dm_address[31:0] $end
$var reg 32 H dm_datain[31:0] $end
$var reg 1 I dm_write_enable $end
$var reg 32 J dm_dataout[31:0] $end
$var reg 32 K pc[31:0] $end
$var reg 32 L pc_if[31:0] $end
$var reg 32 M pc_id[31:0] $end
$var reg 32 N pc_ex[31:0] $end
$var reg 32 O pc_mem[31:0] $end
$var reg 32 P ins_if[31:0] $end
$var reg 32 Q ins_id[31:0] $end
$var reg 32 R reg_data_1[31:0] $end
$var reg 32 S reg_data_2[31:0] $end
$var reg 32 T reg_data_1_ex[31:0] $end
$var reg 32 U reg_data_2_ex[31:0] $end
$var reg 32 V reg_data_2_mem[31:0] $end
$var reg 32 W alu_res_ex[31:0] $end
$var reg 32 X alu_res_mem[31:0] $end
$var reg 32 Y alu_res_wb[31:0] $end
$var reg 32 Z datamem_data_mem[31:0] $end
$var reg 32 [ datamem_data_wb[31:0] $end
$var reg 2 \ alucop_ex[1:0] $end
$var reg 2 ] alucop_id[1:0] $end
$var reg 6 ^ func_id[5:0] $end
$var reg 6 _ func_ex[5:0] $end
$var reg 3 ` aluop[2:0] $end
$var reg 5 a zd_ex[4:0] $end
$var reg 5 b zt_ex[4:0] $end
$var reg 1 c regdst_id $end
$var reg 1 d memtoreg_id $end
$var reg 1 e regwrite_id $end
$var reg 1 f memread_id $end
$var reg 1 g memwrite_id $end
$var reg 5 h destreg_ex[4:0] $end
$var reg 5 i destreg_wb[4:0] $end
$var reg 5 j destreg_mem[4:0] $end
$var reg 1 k regdst_ex $end
$var reg 1 l memtoreg_ex $end
$var reg 1 m regwrite_ex $end
$var reg 1 n memread_ex $end
$var reg 1 o memwrite_ex $end
$var reg 1 p regdst_mem $end
$var reg 1 q memtoreg_mem $end
$var reg 1 r memtoreg_wb $end
$var reg 1 s regwrite_mem $end
$var reg 1 t memread_mem $end
$var reg 1 u memwrite_mem $end
$var reg 1 v regwrite_wb $end
$var reg 32 w reg_write_data_wb[31:0] $end
$var reg 1 x gooz $end
$scope module adder_pc $end
$var reg 32 y n1[31:0] $end
$var reg 32 z n2[31:0] $end
$var reg 32 { result[31:0] $end
$upscope $end
$scope module if_id_0 $end
$var reg 1 | clk $end
$var reg 32 } pc[31:0] $end
$var reg 32 !" pc_out[31:0] $end
$var reg 32 "" ins[31:0] $end
$var reg 32 #" ins_out[31:0] $end
$var reg 1 $" write_reg $end
$var reg 32 %" pc_reg[31:0] $end
$var reg 32 &" instruction[31:0] $end
$upscope $end
$scope module control_0 $end
$var reg 6 '" opcode[5:0] $end
$var reg 1 (" regdst $end
$var reg 1 )" memtoreg $end
$var reg 1 *" reg_write $end
$var reg 1 +" memread $end
$var reg 1 ," memwrite $end
$var reg 2 -" aluop[1:0] $end
$upscope $end
$scope module reg_id_ex_0 $end
$var reg 1 ." clk $end
$var reg 32 /" pc[31:0] $end
$var reg 32 0" pc_out[31:0] $end
$var reg 5 1" zd[4:0] $end
$var reg 5 2" zd_out[4:0] $end
$var reg 5 3" zt[4:0] $end
$var reg 5 4" zt_out[4:0] $end
$var reg 32 5" read_data_1[31:0] $end
$var reg 32 6" read_data_1_out[31:0] $end
$var reg 32 7" read_data_2[31:0] $end
$var reg 32 8" read_data_2_out[31:0] $end
$var reg 2 9" aluop[1:0] $end
$var reg 2 :" aluop_out[1:0] $end
$var reg 6 ;" func[5:0] $end
$var reg 6 <" func_out[5:0] $end
$var reg 1 =" regdst $end
$var reg 1 >" regdst_out $end
$var reg 1 ?" memwrite $end
$var reg 1 @" memwrite_out $end
$var reg 1 A" memread $end
$var reg 1 B" memread_out $end
$var reg 1 C" memtoreg $end
$var reg 1 D" memtoreg_out $end
$var reg 1 E" regwrite $end
$var reg 1 F" regwrite_out $end
$var reg 1 G" write_reg $end
$var reg 32 H" pc_reg[31:0] $end
$var reg 5 I" zd_reg[4:0] $end
$var reg 5 J" zt_reg[4:0] $end
$var reg 2 K" aluop_reg[1:0] $end
$var reg 1 L" regdst_reg $end
$var reg 1 M" memwrite_reg $end
$var reg 1 N" memread_reg $end
$var reg 1 O" memtoreg_reg $end
$var reg 32 P" read_data_1_reg[31:0] $end
$var reg 32 Q" read_data_2_reg[31:0] $end
$var reg 1 R" regwrite_reg $end
$var reg 6 S" func_reg[5:0] $end
$upscope $end
$scope module alu_control_0 $end
$var reg 2 T" aluop[1:0] $end
$var reg 6 U" func[5:0] $end
$var reg 3 V" alucontrol[2:0] $end
$var reg 8 W" inputs[7:0] $end
$upscope $end
$scope module alu_0 $end
$var reg 32 X" a[31:0] $end
$var reg 32 Y" b[31:0] $end
$var reg 3 Z" op[2:0] $end
$var reg 32 [" o[31:0] $end
$var reg 16 \" rsum[15:0] $end
$var reg 16 ]" vsum[15:0] $end
$var reg 16 ^" rsub[15:0] $end
$var reg 16 _" vsub[15:0] $end
$var reg 16 `" rmult[15:0] $end
$var reg 16 a" vmult[15:0] $end
$var reg 16 b" rdiv[15:0] $end
$var reg 16 c" vdiv[15:0] $end
$var reg 16 d" sum[15:0] $end
$var reg 16 e" sub[15:0] $end
$var reg 16 f" mult[15:0] $end
$var reg 16 g" div[15:0] $end
$var reg 16 h" rnega[15:0] $end
$var reg 16 i" rnegb[15:0] $end
$var reg 16 j" vnega[15:0] $end
$var reg 16 k" vnegb[15:0] $end
$var reg 16 l" rmux[15:0] $end
$var reg 16 m" vmux[15:0] $end
$var reg 32 n" nsum[31:0] $end
$var reg 32 o" nsub[31:0] $end
$var reg 32 p" nmult[31:0] $end
$var reg 32 q" ndiv[31:0] $end
$var reg 32 r" nnega[31:0] $end
$var reg 32 s" nnegb[31:0] $end
$scope module r_negb $end
$var reg 16 t" i[15:0] $end
$var reg 16 u" o[15:0] $end
$upscope $end
$scope module r_mux $end
$var reg 16 v" i0[15:0] $end
$var reg 16 w" i1[15:0] $end
$var reg 1 x" s $end
$var reg 16 y" o[15:0] $end
$upscope $end
$scope module v_negb $end
$var reg 16 z" i[15:0] $end
$var reg 16 {" o[15:0] $end
$upscope $end
$scope module v_mux $end
$var reg 16 |" i0[15:0] $end
$var reg 16 }" i1[15:0] $end
$var reg 1 !# s $end
$var reg 16 "# o[15:0] $end
$upscope $end
$scope module r_adder $end
$var reg 16 ## n1[15:0] $end
$var reg 16 $# n2[15:0] $end
$var reg 16 %# result[15:0] $end
$upscope $end
$scope module v_adder $end
$var reg 16 &# n1[15:0] $end
$var reg 16 '# n2[15:0] $end
$var reg 16 (# result[15:0] $end
$upscope $end
$scope module r_mult $end
$var reg 16 )# nibble1[15:0] $end
$var reg 16 *# nibble2[15:0] $end
$var reg 16 +# result[15:0] $end
$var reg 32 ,# rs[31:0] $end
$upscope $end
$scope module v_mult $end
$var reg 16 -# nibble1[15:0] $end
$var reg 16 .# nibble2[15:0] $end
$var reg 16 /# result[15:0] $end
$var reg 32 0# rs[31:0] $end
$upscope $end
$scope module r_div $end
$var reg 16 1# nibble1[15:0] $end
$var reg 16 2# nibble2[15:0] $end
$var reg 16 3# result[15:0] $end
$upscope $end
$scope module v_div $end
$var reg 16 4# nibble1[15:0] $end
$var reg 16 5# nibble2[15:0] $end
$var reg 16 6# result[15:0] $end
$upscope $end
$scope module alu_sum $end
$var reg 32 7# i0[31:0] $end
$var reg 32 8# i1[31:0] $end
$var reg 32 9# i2[31:0] $end
$var reg 32 :# i3[31:0] $end
$var reg 32 ;# i4[31:0] $end
$var reg 32 <# i5[31:0] $end
$var reg 32 =# i6[31:0] $end
$var reg 32 ># i7[31:0] $end
$var reg 3 ?# s[2:0] $end
$var reg 32 @# o[31:0] $end
$upscope $end
$upscope $end
$scope module mux2_1_0 $end
$var reg 5 A# i0[4:0] $end
$var reg 5 B# i1[4:0] $end
$var reg 1 C# s $end
$var reg 5 D# o[4:0] $end
$upscope $end
$scope module reg_ex_mem_0 $end
$var reg 1 E# clk $end
$var reg 32 F# newpc[31:0] $end
$var reg 32 G# newpc_out[31:0] $end
$var reg 32 H# alures[31:0] $end
$var reg 32 I# alures_out[31:0] $end
$var reg 1 J# aluzero $end
$var reg 1 K# aluzero_out $end
$var reg 32 L# read_data_2[31:0] $end
$var reg 32 M# read_data_2_out[31:0] $end
$var reg 5 N# dst_reg[4:0] $end
$var reg 5 O# dst_reg_out[4:0] $end
$var reg 1 P# memwrite $end
$var reg 1 Q# memwrite_out $end
$var reg 1 R# memread $end
$var reg 1 S# memread_out $end
$var reg 1 T# memtoreg $end
$var reg 1 U# memtoreg_out $end
$var reg 1 V# regwrite $end
$var reg 1 W# regwrite_out $end
$var reg 1 X# write_reg $end
$var reg 32 Y# newpc_reg[31:0] $end
$var reg 32 Z# alures_reg[31:0] $end
$var reg 1 [# aluzero_reg $end
$var reg 32 \# read_data_2_reg[31:0] $end
$var reg 1 ]# memwrite_reg $end
$var reg 1 ^# memread_reg $end
$var reg 1 _# memtoreg_reg $end
$var reg 5 `# dst_reg_reg[4:0] $end
$var reg 1 a# regwrite_reg $end
$upscope $end
$scope module reg_mem_wb_0 $end
$var reg 1 b# clk $end
$var reg 32 c# mem_read_data[31:0] $end
$var reg 32 d# mem_read_data_out[31:0] $end
$var reg 32 e# alures[31:0] $end
$var reg 32 f# alures_out[31:0] $end
$var reg 5 g# dst_reg[4:0] $end
$var reg 5 h# dst_reg_out[4:0] $end
$var reg 1 i# memtoreg $end
$var reg 1 j# memtoreg_out $end
$var reg 1 k# regwrite $end
$var reg 1 l# regwrite_out $end
$var reg 1 m# write_reg $end
$var reg 32 n# alures_reg[31:0] $end
$var reg 32 o# read_data_2_reg[31:0] $end
$var reg 1 p# memtoreg_reg $end
$var reg 5 q# dst_reg_reg[4:0] $end
$var reg 1 r# regwrite_reg $end
$upscope $end
$scope module mux2_1_32b_0 $end
$var reg 32 s# i0[31:0] $end
$var reg 32 t# i1[31:0] $end
$var reg 1 u# s $end
$var reg 32 v# o[31:0] $end
$upscope $end
$upscope $end
$scope module im_0 $end
$var reg 1 w# clk $end
$var reg 32 x# address[31:0] $end
$var reg 32 y# dataout[31:0] $end
$var reg 32 z# datain[31:0] $end
$var reg 1 {# writeins $end
$comment ram is not handled $end
$var reg 32 |# read_address[31:0] $end
$upscope $end
$scope module regfile_0 $end
$var reg 1 }# clk $end
$var reg 5 !$ read_reg_1[4:0] $end
$var reg 5 "$ read_reg_2[4:0] $end
$var reg 5 #$ write_reg[4:0] $end
$var reg 32 $$ write_data[31:0] $end
$var reg 1 %$ write_enable $end
$var reg 32 &$ read_data_1[31:0] $end
$var reg 32 '$ read_data_2[31:0] $end
$comment regfile is not handled $end
$upscope $end
$scope module dm_0 $end
$var reg 1 ($ clk $end
$var reg 32 )$ address[31:0] $end
$var reg 32 *$ datain[31:0] $end
$var reg 1 +$ write_enable $end
$var reg 32 ,$ dataout[31:0] $end
$comment ram is not handled $end
$upscope $end
$upscope $end
$enddefinitions $end
#0
0!
U"
bUUUUUUUUUUUUUUUUUUUUUUUUUUUUUUUU #
bUUUUUUUUUUUUUUUUUUUUUUUUUUUUUUUU $
bUUUUUUUUUUUUUUUUUUUUUUUUUUUUUUUU %
b00000100001000100001100000000010 &
1'
bUUUUU (
bUUUUU )
b00001 *
bUUUUU +
b00000000000000000000000000000101 ,
bUUUUUUUUUUUUUUUUUUUUUUUUUUUUUUUU -
1.
U/
bUUUUUUUUUUUUUUUUUUUUUUUUUUUUUUUU 0
bUUUUUUUUUUUUUUUUUUUUUUUUUUUUUUUU 1
bUUUUUUUUUUUUUUUUUUUUUUUUUUUUUUUU 2
bUUUUUUUUUUUUUUUUUUUUUUUUUUUUUUUU 3
U4
bUUUUUUUUUUUUUUUUUUUUUUUUUUUUUUUU 5
b1 6
bUUUUU 7
bUUUUU 8
bUUUUUUUUUUUUUUUUUUUUUUUUUUUUUUUU 9
bUUUUUUUUUUUUUUUUUUUUUUUUUUUUUUUU :
0;
0<
bUUUUUUUUUUUUUUUUUUUUUUUUUUUUUUUU =
bUUUUUUUUUUUUUUUUUUUUUUUUUUUUUUUU >
bUUUUUUUUUUUUUUUUUUUUUUUUUUUUUUUU ?
bUUUUU @
bUUUUU A
bUUUUU B
bUUUUUUUUUUUUUUUUUUUUUUUUUUUUUUUU C
UD
bUUUUUUUUUUUUUUUUUUUUUUUUUUUUUUUU E
bUUUUUUUUUUUUUUUUUUUUUUUUUUUUUUUU F
bUUUUUUUUUUUUUUUUUUUUUUUUUUUUUUUU G
bUUUUUUUUUUUUUUUUUUUUUUUUUUUUUUUU H
UI
bUUUUUUUUUUUUUUUUUUUUUUUUUUUUUUUU J
bUUUUUUUUUUUUUUUUUUUUUUUUUUUUUUUU K
bXXXXXXXXXXXXXXXXXXXXXXXXXXXXXXXX L
bUUUUUUUUUUUUUUUUUUUUUUUUUUUUUUUU M
bUUUUUUUUUUUUUUUUUUUUUUUUUUUUUUUU N
bUUUUUUUUUUUUUUUUUUUUUUUUUUUUUUUU O
bUUUUUUUUUUUUUUUUUUUUUUUUUUUUUUUU P
bUUUUUUUUUUUUUUUUUUUUUUUUUUUUUUUU Q
bUUUUUUUUUUUUUUUUUUUUUUUUUUUUUUUU R
bUUUUUUUUUUUUUUUUUUUUUUUUUUUUUUUU S
bUUUUUUUUUUUUUUUUUUUUUUUUUUUUUUUU T
bUUUUUUUUUUUUUUUUUUUUUUUUUUUUUUUU U
bUUUUUUUUUUUUUUUUUUUUUUUUUUUUUUUU V
bXXXXXXXXXXXXXXXXXXXXXXXXXXXXXXXX W
bUUUUUUUUUUUUUUUUUUUUUUUUUUUUUUUU X
bUUUUUUUUUUUUUUUUUUUUUUUUUUUUUUUU Y
bUUUUUUUUUUUUUUUUUUUUUUUUUUUUUUUU Z
bUUUUUUUUUUUUUUUUUUUUUUUUUUUUUUUU [
bUU \
b10 ]
bUUUUUU ^
bUUUUUU _
b010 `
bUUUUU a
bUUUUU b
0c
1d
0e
0f
0g
bUUUUU h
bUUUUU i
bUUUUU j
Uk
Ul
Um
Un
Uo
Up
Uq
Ur
Us
Ut
Uu
Uv
bUUUUUUUUUUUUUUUUUUUUUUUUUUUUUUUU w
Ux
b00000000000000000000000000000100 y
bUUUUUUUUUUUUUUUUUUUUUUUUUUUUUUUU z
bXXXXXXXXXXXXXXXXXXXXXXXXXXXXXXXX {
0|
bUUUUUUUUUUUUUUUUUUUUUUUUUUUUUUUU }
bUUUUUUUUUUUUUUUUUUUUUUUUUUUUUUUU !"
bUUUUUUUUUUUUUUUUUUUUUUUUUUUUUUUU ""
bUUUUUUUUUUUUUUUUUUUUUUUUUUUUUUUU #"
0$"
bUUUUUUUUUUUUUUUUUUUUUUUUUUUUUUUU %"
bUUUUUUUUUUUUUUUUUUUUUUUUUUUUUUUU &"
bUUUUUU '"
0("
1)"
0*"
0+"
0,"
b10 -"
0."
bUUUUUUUUUUUUUUUUUUUUUUUUUUUUUUUU /"
bUUUUUUUUUUUUUUUUUUUUUUUUUUUUUUUU 0"
bUUUUU 1"
bUUUUU 2"
bUUUUU 3"
bUUUUU 4"
bUUUUUUUUUUUUUUUUUUUUUUUUUUUUUUUU 5"
bUUUUUUUUUUUUUUUUUUUUUUUUUUUUUUUU 6"
bUUUUUUUUUUUUUUUUUUUUUUUUUUUUUUUU 7"
bUUUUUUUUUUUUUUUUUUUUUUUUUUUUUUUU 8"
b10 9"
bUU :"
bUUUUUU ;"
bUUUUUU <"
0="
U>"
0?"
U@"
0A"
UB"
1C"
UD"
0E"
UF"
0G"
bUUUUUUUUUUUUUUUUUUUUUUUUUUUUUUUU H"
bUUUUU I"
bUUUUU J"
bUU K"
UL"
UM"
UN"
UO"
bUUUUUUUUUUUUUUUUUUUUUUUUUUUUUUUU P"
bUUUUUUUUUUUUUUUUUUUUUUUUUUUUUUUU Q"
UR"
bUUUUUU S"
bUU T"
bUUUUUU U"
b010 V"
bUUUUUUUU W"
bUUUUUUUUUUUUUUUUUUUUUUUUUUUUUUUU X"
bUUUUUUUUUUUUUUUUUUUUUUUUUUUUUUUU Y"
b010 Z"
bXXXXXXXXXXXXXXXXXXXXXXXXXXXXXXXX ["
bXXXXXXXXXXXXXXXX \"
bXXXXXXXXXXXXXXXX ]"
bUUUUUUUUUUUUUUUU ^"
bUUUUUUUUUUUUUUUU _"
bXXXXXXXXXXXXXXXX `"
bXXXXXXXXXXXXXXXX a"
bXXXXXXXXXXXXXXXX b"
bXXXXXXXXXXXXXXXX c"
bUUUUUUUUUUUUUUUU d"
bUUUUUUUUUUUUUUUU e"
bUUUUUUUUUUUUUUUU f"
bUUUUUUUUUUUUUUUU g"
bUUUUUUUUUUUUUUUU h"
bUUUUUUUUUUUUUUUU i"
bUUUUUUUUUUUUUUUU j"
bUUUUUUUUUUUUUUUU k"
bUUUUUUUUUUUUUUUU l"
bUUUUUUUUUUUUUUUU m"
bXXXXXXXXXXXXXXXXXXXXXXXXXXXXXXXX n"
bXXXXXXXXXXXXXXXXXXXXXXXXXXXXXXXX o"
bXXXXXXXXXXXXXXXXXXXXXXXXXXXXXXXX p"
bXXXXXXXXXXXXXXXXXXXXXXXXXXXXXXXX q"
bUUUUUUUUUUUUUUUUUUUUUUUUUUUUUUUU r"
bUUUUUUUUUUUUUUUUUUUUUUUUUUUUUUUU s"
bUUUUUUUUUUUUUUUU t"
bUUUUUUUUUUUUUUUU u"
bUUUUUUUUUUUUUUUU v"
bUUUUUUUUUUUUUUUU w"
0x"
bUUUUUUUUUUUUUUUU y"
bUUUUUUUUUUUUUUUU z"
bUUUUUUUUUUUUUUUU {"
bUUUUUUUUUUUUUUUU |"
bUUUUUUUUUUUUUUUU }"
0!#
bUUUUUUUUUUUUUUUU "#
bUUUUUUUUUUUUUUUU ##
bUUUUUUUUUUUUUUUU $#
bXXXXXXXXXXXXXXXX %#
bUUUUUUUUUUUUUUUU &#
bUUUUUUUUUUUUUUUU '#
bXXXXXXXXXXXXXXXX (#
bUUUUUUUUUUUUUUUU )#
bUUUUUUUUUUUUUUUU *#
bXXXXXXXXXXXXXXXX +#
bXXXXXXXXXXXXXXXXXXXXXXXXXXXXXXXX ,#
bUUUUUUUUUUUUUUUU -#
bUUUUUUUUUUUUUUUU .#
bXXXXXXXXXXXXXXXX /#
bXXXXXXXXXXXXXXXXXXXXXXXXXXXXXXXX 0#
bUUUUUUUUUUUUUUUU 1#
bUUUUUUUUUUUUUUUU 2#
bXXXXXXXXXXXXXXXX 3#
bUUUUUUUUUUUUUUUU 4#
bUUUUUUUUUUUUUUUU 5#
bXXXXXXXXXXXXXXXX 6#
bUUUUUUUUUUUUUUUUUUUUUUUUUUUUUUUU 7#
bUUUUUUUUUUUUUUUUUUUUUUUUUUUUUUUU 8#
bXXXXXXXXXXXXXXXXXXXXXXXXXXXXXXXX 9#
bXXXXXXXXXXXXXXXXXXXXXXXXXXXXXXXX :#
bXXXXXXXXXXXXXXXXXXXXXXXXXXXXXXXX ;#
bXXXXXXXXXXXXXXXXXXXXXXXXXXXXXXXX <#
bUUUUUUUUUUUUUUUUUUUUUUUUUUUUUUUU =#
bUUUUUUUUUUUUUUUUUUUUUUUUUUUUUUUU >#
b010 ?#
bXXXXXXXXXXXXXXXXXXXXXXXXXXXXXXXX @#
bUUUUU A#
bUUUUU B#
UC#
bUUUUU D#
0E#
bUUUUUUUUUUUUUUUUUUUUUUUUUUUUUUUU F#
bUUUUUUUUUUUUUUUUUUUUUUUUUUUUUUUU G#
bXXXXXXXXXXXXXXXXXXXXXXXXXXXXXXXX H#
bUUUUUUUUUUUUUUUUUUUUUUUUUUUUUUUU I#
UJ#
UK#
bUUUUUUUUUUUUUUUUUUUUUUUUUUUUUUUU L#
bUUUUUUUUUUUUUUUUUUUUUUUUUUUUUUUU M#
bUUUUU N#
bUUUUU O#
UP#
UQ#
UR#
US#
UT#
UU#
UV#
UW#
0X#
bUUUUUUUUUUUUUUUUUUUUUUUUUUUUUUUU Y#
bUUUUUUUUUUUUUUUUUUUUUUUUUUUUUUUU Z#
U[#
bUUUUUUUUUUUUUUUUUUUUUUUUUUUUUUUU \#
U]#
U^#
U_#
bUUUUU `#
Ua#
0b#
bUUUUUUUUUUUUUUUUUUUUUUUUUUUUUUUU c#
bUUUUUUUUUUUUUUUUUUUUUUUUUUUUUUUU d#
bUUUUUUUUUUUUUUUUUUUUUUUUUUUUUUUU e#
bUUUUUUUUUUUUUUUUUUUUUUUUUUUUUUUU f#
bUUUUU g#
bUUUUU h#
Ui#
Uj#
Uk#
Ul#
0m#
bUUUUUUUUUUUUUUUUUUUUUUUUUUUUUUUU n#
bUUUUUUUUUUUUUUUUUUUUUUUUUUUUUUUU o#
Up#
bUUUUU q#
Ur#
bUUUUUUUUUUUUUUUUUUUUUUUUUUUUUUUU s#
bUUUUUUUUUUUUUUUUUUUUUUUUUUUUUUUU t#
Uu#
bUUUUUUUUUUUUUUUUUUUUUUUUUUUUUUUU v#
0w#
bUUUUUUUUUUUUUUUUUUUUUUUUUUUUUUUU x#
bUUUUUUUUUUUUUUUUUUUUUUUUUUUUUUUU y#
b00000100001000100001100000000010 z#
1{#
bUUUUUUUUUUUUUUUUUUUUUUUUUUUUUUUU |#
0}#
bUUUUU !$
bUUUUU "$
b00001 #$
b00000000000000000000000000000101 $$
1%$
bUUUUUUUUUUUUUUUUUUUUUUUUUUUUUUUU &$
bUUUUUUUUUUUUUUUUUUUUUUUUUUUUUUUU '$
0($
bUUUUUUUUUUUUUUUUUUUUUUUUUUUUUUUU )$
bUUUUUUUUUUUUUUUUUUUUUUUUUUUUUUUU *$
U+$
bUUUUUUUUUUUUUUUUUUUUUUUUUUUUUUUU ,$
#10000000
1!
1;
1<
1|
1$"
1."
1G"
b10 K"
0L"
0M"
0N"
1O"
0R"
1E#
1X#
bXXXXXXXXXXXXXXXXXXXXXXXXXXXXXXXX Z#
1b#
1m#
1w#
1}#
#20000000
0!
b00000000000000000000000000000000 #
b00000000000000000000000000000000 $
b00000000000000000000000000000100 &
0'
b00010 *
b00000000000000000000000000000111 ,
b0 6
0;
0<
b00000000000000000000000000000000 =
b00000000000000000000000000000000 >
b00000000000000000000000000000000 K
b00000000000000000000000000000100 L
b00000000000000000000000000000000 z
b00000000000000000000000000000100 {
0|
b00000000000000000000000000000000 }
0$"
0."
0G"
0E#
0X#
0b#
0m#
0w#
b00000000000000000000000000000000 x#
b00000000000000000000000000000100 z#
0{#
0}#
b00010 #$
b00000000000000000000000000000111 $$
#30000000
1!
b00000100001000100001100000000010 %
bXXXXXXXXXXXXXXXXXXXXXXXXXXXXXXXX 2
1;
1<
b00000100001000100001100000000010 ?
bXXXXXXXXXXXXXXXXXXXXXXXXXXXXXXXX G
b00000000000000000000000000000000 M
b00000100001000100001100000000010 P
bXXXXXXXXXXXXXXXXXXXXXXXXXXXXXXXX X
b10 \
0k
1l
0m
0n
0o
1|
b00000000000000000000000000000000 !"
b00000100001000100001100000000010 ""
1$"
b00000000000000000000000000000000 %"
b00000100001000100001100000000010 &"
1."
b00000000000000000000000000000000 /"
b10 :"
0>"
0@"
0B"
1D"
0F"
1G"
b00000000000000000000000000000000 H"
b10 T"
b10UUUUUU W"
0C#
1E#
bXXXXXXXXXXXXXXXXXXXXXXXXXXXXXXXX I#
0P#
0R#
1T#
0V#
1X#
1b#
bXXXXXXXXXXXXXXXXXXXXXXXXXXXXXXXX e#
1m#
bXXXXXXXXXXXXXXXXXXXXXXXXXXXXXXXX n#
1w#
b00000100001000100001100000000010 y#
b00000000000000000000000000000000 |#
1}#
bXXXXXXXXXXXXXXXXXXXXXXXXXXXXXXXX )$
#40000000
0!
bUUUUU *
bUUUUUUUUUUUUUUUUUUUUUUUUUUUUUUUU ,
U.
0;
0<
0|
0$"
0."
0G"
0E#
0X#
0b#
0m#
0w#
0}#
bUUUUU #$
bUUUUUUUUUUUUUUUUUUUUUUUUUUUUUUUU $$
U%$
#50000000
1!
b00001 (
b00010 )
04
1;
1<
b00001 @
b00010 A
0I
b00000000000000000000000000000000 N
b00000100001000100001100000000010 Q
bXXXXXXXXXXXXXXXXXXXXXXXXXXXXXXXX Y
1c
1e
1q
0s
0t
0u
1|
b00000100001000100001100000000010 #"
1$"
b000001 '"
1("
1*"
1."
b00000000000000000000000000000000 0"
b00011 1"
b00010 3"
b000010 ;"
1="
1E"
1G"
b00011 I"
b00010 J"
b000010 S"
1E#
b00000000000000000000000000000000 F#
0Q#
0S#
1U#
0W#
1X#
b00000000000000000000000000000000 Y#
0]#
0^#
1_#
0a#
1b#
bXXXXXXXXXXXXXXXXXXXXXXXXXXXXXXXX f#
1i#
0k#
1m#
bXXXXXXXXXXXXXXXXXXXXXXXXXXXXXXXX t#
1w#
1}#
b00001 !$
b00010 "$
0+$
#60000000
0!
0;
0<
0|
0$"
0."
0G"
0E#
0X#
0b#
0m#
0w#
0}#
#70000000
1!
bXXXXXXXXXXXXXXXXXXXXXXXXXXXXXXXX -
0/
b00000000000000000000000000000101 0
b00000000000000000000000000000111 1
1;
1<
bXXXXXXXXXXXXXXXXXXXXXXXXXXXXXXXX C
0D
b00000000000000000000000000000101 E
b00000000000000000000000000000111 F
b00000000000000000000000000000000 O
b00000000000000000000000000000101 R
b00000000000000000000000000000111 S
b000010 _
b00011 a
b00010 b
b00011 h
b00010 j
1k
1m
1r
0v
bXXXXXXXXXXXXXXXXXXXXXXXXXXXXXXXX w
1|
1$"
1."
b00011 2"
b00010 4"
b00000000000000000000000000000101 5"
b00000000000000000000000000000111 7"
b000010 <"
1>"
1F"
1G"
1L"
b00000000000000000000000000000101 P"
b00000000000000000000000000000111 Q"
1R"
b000010 U"
b10000010 W"
b00010 A#
b00011 B#
1C#
b00011 D#
1E#
b00000000000000000000000000000000 G#
b00011 N#
b00010 O#
1V#
1X#
b00011 `#
1a#
1b#
b00010 g#
1j#
0l#
1m#
1p#
b00010 q#
0r#
1u#
bXXXXXXXXXXXXXXXXXXXXXXXXXXXXXXXX v#
1w#
1}#
b00000000000000000000000000000101 &$
b00000000000000000000000000000111 '$
#80000000
0!
bXXXXXXXXXXXXXXXXXXXXXXXXXXXXXXXX ,
0.
0;
0<
0|
0$"
0."
0G"
0E#
0X#
0b#
0m#
0w#
0}#
bXXXXXXXXXXXXXXXXXXXXXXXXXXXXXXXX $$
0%$
